{
    "content": [
        {
            "id": 1,
            "title": "Maltempo: Lazio,allerta gialla per vento da domani per 24-30 ore",
            "description": "Soprattutto sulle coste, mareggiate",
            "user": "Redazione ANSA",
            "place": "ROMA",
            "date": "2023-01-09T18:49:02.000+00:00",
            "datePublication": "09 gennaio 2023 16:37",
            "url": "https://www.ansa.it/lazio/notizie/2023/01/09/maltempo-lazioallerta-gialla-per-vento-da-domani-per-24-30-ore_418383c5-5eeb-4cd9-a0ee-2ef39dce0544.html",
            "pag": "cronaca",
            "descriptionLong": "(ANSA) - ROMA, 09 GEN - Il Centro Funzionale Regionale rende noto che il Dipartimento della Protezione Civile ha emesso oggi l'avviso di condizioni meteorologiche avverse con indicazione che dalle prime ore di domani, martedì, e per le successive 24-30 ore, si prevede sul Lazio il persistere di venti forti o di burrasca dai quadranti settentrionali; la ventilazione riguarderà in special modo i settori costieri, con mareggiate lungo le coste esposte. Il Centro Funzionale Regionale ha effettuato la valutazione dei Livelli di allerta e criticità e ha pertanto inoltrato un bollettino con allerta gialla per vento da domani su tutto il Lazio. La Sala Operativa Permanente della Regione Lazio ha diramato l'allertamento del Sistema di Protezione Civile Regionale e invitato tutte le strutture ad adottare tutti gli adempimenti di competenza. Per ogni emergenza la popolazione potrà fare riferimento alle strutture comunali di Protezione civile alle quali la Sala Operativa Regionale garantirà costante supporto. (ANSA).",
            "key_words": "\"Allerta meteo\"\"Archiviato\""
        },
        {
            "id": 2,
            "title": "Covid: nel Lazio sette morti e 836 contagi, 500 a Roma",
            "description": "Aumentano i ricoverati (+28), rapporto positivi-tamponi 11,9%",
            "user": "Redazione ANSA",
            "place": "ROMA",
            "date": "2023-01-09T18:49:03.000+00:00",
            "datePublication": "09 gennaio 2023 15:48",
            "url": "https://www.ansa.it/lazio/notizie/2023/01/09/covid-nel-lazio-sette-morti-e-836-contagi-500-a-roma_8cc945b6-d075-4d71-847e-1e64937a62c8.html",
            "pag": "cronaca",
            "descriptionLong": "(ANSA) - ROMA, 09 GEN - Oggi nel Lazio su 1.669 tamponi molecolari e 5.343 tamponi antigenici per un totale di 7.012 tamponi, si registrano 836 nuovi casi positivi (-812), sono 7 i decessi (+4), sono 733 i ricoverati (+28), 30 le terapie intensive (+1) e +3.592 i guariti. Il rapporto tra positivi e tamponi è al 11,9%. I casi a Roma città sono a quota 500. E' quanto fa sapere l'assessore alla Sanità del Lazio Alessio D'Amato. (ANSA).",
            "key_words": "\"Salute,Morte\"\"Archiviato\"\"Alessio D'Amato\"\"Person\""
        },
        {
            "id": 3,
            "title": "Morì a causa dell'amianto, condannata compagnia trasporti",
            "description": "Risarcimento per i figli. Cotral, ora nessun lavoratore esposto",
            "user": "Redazione ANSA",
            "place": "ROMA",
            "date": "2023-01-09T18:49:04.000+00:00",
            "datePublication": "09 gennaio 2023 15:40",
            "url": "https://www.ansa.it/lazio/notizie/2023/01/09/mori-a-causa-dellamianto-condannata-compagnia-trasporti_c84599fe-bbdc-483d-920d-1964f39509cc.html",
            "pag": "cronaca",
            "descriptionLong": "(ANSA) - ROMA, 09 GEN - Il Tribunale civile di Roma ha condannato la compagnia di trasporti laziali Cotral SpA al risarcimento dei danni nei confronti di Stefano e Claudio, figli di Vincenzo Cecchini, autista di linea morto a 59 anni per adenocarcinoma polmonare da amianto, che riceveranno complessivamente 157mila euro di risarcimento. Lo rende noto l'Osservatorio Nazionale Amianto. \"Cecchini per oltre dieci anni è stato operaio, manovale d'officina, e poi autista per Cotral - spiega una nota - svolgendo, negli anni, anche mansioni consistenti nella manutenzione delle scale mobili delle stazioni della metropolitana di Roma che presentavano molte componenti in amianto. Come autista di linea ha condotto mezzi pesanti, autobus e pullman ancora con vari parti in asbesto, con esposizione a polveri e fibre di amianto. È stato esposto, quindi, alla fibra killer, così come a residui della combustione, benzene e altri cancerogeni per il sistema respiratorio, in assenza di strumenti di prevenzione tecnica e di protezione individuale. La diagnosi, impietosa, è arrivata nel novembre 2010, l'uomo è morto soltanto 8 mesi più tardi il 22 luglio 2011\". \"Non sarà possibile restituire alla famiglia il loro caro, ma abbiamo ottenuto giustizia e un po' di pace\", commenta il presidente dell'Osservatorio, Ezio Bonanni. \"L'azienda prende atto della sentenza disposta dal Tribunale di Roma e precisa che si tratta di fatti risalenti ad oltre vent'anni fa - afferma Cotral - Nel rispetto della normativa, nessun lavoratore impiegato presso gli impianti di Cotral Spa, è attualmente esposto al contatto con componenti che contengono polveri e fibre di amianto\". (ANSA).",
            "key_words": "\"Cancro,Giustizia,Morte,Trasporti stradali\"\"Archiviato\"\"Ezio Bonanni,Vincenzo Cecchini,Stefano,Claudio\"\"Person\"\"Cotral Spa\"\"Organization\""
        },
        {
            "id": 4,
            "title": "Maltempo:interventi messa in sicurezza su litorale nord Roma",
            "description": "Vigili del fuoco in azione per cartelli ed antenne pericolanti",
            "user": "Redazione ANSA",
            "place": "ROMA",
            "date": "2023-01-09T18:49:04.000+00:00",
            "datePublication": "09 gennaio 2023 15:09",
            "url": "https://www.ansa.it/lazio/notizie/2023/01/09/maltempointerventi-messa-in-sicurezza-su-litorale-nord-roma_088da809-8d45-4d93-bee1-2d5e45077edb.html",
            "pag": "cronaca",
            "descriptionLong": "(ANSA) - ROMA, 09 GEN - Da questa mattina sono in corso numerosi interventi dei vigili del fuoco per la messa in sicurezza di mura, cartelli pubblicitari ed antenne pericolanti a causa del forte vento e delle avverse condizioni meteorologiche. In particolare, gli interventi sono stati compiuti a Santa Marinella, sul litorale nord di Roma, a Civitavecchia, ed ad Allumiere, in piazza Filippo Turati, dove i vigili del fuoco, con tecnica speleo alpino fluviale, hanno rimosso e messo in sicurezza, sul tetto di un'abitazione, delle antenne pericolanti e delle tegole divelte. (ANSA).",
            "key_words": "\"Meteo\"\"Archiviato\""
        },
        {
            "id": 5,
            "title": "Dopo 3 anni le udienze della Consulta tornano in sala Gialla",
            "description": "Ritorno alla normalità dopo i cambiamenti legati al Covid 19",
            "user": "Redazione ANSA",
            "place": "ROMA",
            "date": "2023-01-09T18:49:05.000+00:00",
            "datePublication": "09 gennaio 2023 15:02",
            "url": "https://www.ansa.it/lazio/notizie/2023/01/09/dopo-3-anni-le-udienze-della-consulta-tornano-in-sala-gialla_b945bcec-5385-432c-8cff-31bbfd070b78.html",
            "pag": "cronaca",
            "descriptionLong": "(ANSA) - ROMA, 09 GEN - La Corte costituzionale torna alla normalità dopo i cambiamenti imposti dall'emergenza Covid 19. Da domani, dopo quasi tre anni, i 15 giudici costituzionali torneranno a riunirsi in udienza pubblica nella \"Sala Gialla\", al secondo piano di Palazzo della Consulta. A maggio dell'anno scorso era stato compiuto il primo passo con il ripristino della presenza del pubblico alle udienze. (ANSA).",
            "key_words": "\"Magistratura,Giustizia\"\"Archiviato\"\"Corte Costituzionale\"\"Organization\""
        },
        {
            "id": 6,
            "title": "Lazio: Comunità energetiche rinnovabili,al via domande per bando",
            "description": "Sostegno va da un minimo di 6.000 a un massimo di 13.000 euro",
            "user": "Redazione ANSA",
            "place": "ROMA",
            "date": "2023-01-09T18:49:06.000+00:00",
            "datePublication": "09 gennaio 2023 14:59",
            "url": "https://www.ansa.it/lazio/notizie/2023/01/09/lazio-comunita-energetiche-rinnovabilial-via-domande-per-bando_1b87853e-64fb-4887-b8c8-84183430807f.html",
            "pag": "cronaca",
            "descriptionLong": "(ANSA) - ROMA, 09 GEN - Al via da oggi sulla piattaforma GeCoWEB Plus la presentazione delle domande per il bando della Regione Lazio da un milione di euro complessivi volto a finanziare gli studi di fattibilità tecnico-economica finalizzati a realizzare le CER, le Comunità Energetiche Rinnovabili. Lo sviluppo delle Comunità Energetiche Rinnovabili, già oggetto della campagna di sensibilizzazione 'Meno Inquini, Più risparmi' (consultabile su: www.lazioecologicoedigitale.it/comunitaenergeticherinnovabili), si inserisce nell'ambito degli indirizzi di politica energetica della programmazione unitaria 2021 - 2027, del Piano Energetico Regionale - PER e del Piano per la Transizione Ecologica (PTE) della Regione. La costituzione delle CER permette inoltre di raggiungere obiettivi di carattere: ambientale, incentivando la diffusione delle Fonti Energetiche Rinnovabili diminuendo in tal modo le emissioni di gas ad effetto serra e concorrendo alla mitigazione dei Cambiamenti Climatici; economico, attraverso la riduzione dei consumi e il risparmio energetico; sociale, attraverso la promozione di modelli di inclusione e collaborazione e di contrasto alla povertà energetica. Per ciascuna domanda il sostegno va da un minimo di 6.000 a un massimo di 13.000 euro. La domanda va presentata on line dal Soggetto Promotore della CER dalle ore 12:00 del 9/01/2023 e fino alle ore 18:00 del 21/02/2023 sempre sulla piattaforma GeCoWEB Plus. Maggiori informazioni su: www.lazioecologicoedigitale.it (ANSA).",
            "key_words": "\"Energia,Macroeconomia,Ambiente\"\"Archiviato\"\"Lazio Comunità\"\"Organization\""
        },
        {
            "id": 7,
            "title": "\"Schiaffi e insulti\", medico aggredito al Sant'Andrea",
            "description": "Federazione Cimo-Fesmed, è un problema di ordine pubblico",
            "user": "Redazione ANSA",
            "place": "ROMA",
            "date": "2023-01-09T18:49:07.000+00:00",
            "datePublication": "09 gennaio 2023 14:33",
            "url": "https://www.ansa.it/lazio/notizie/2023/01/09/schiaffi-e-insulti-medico-aggredito-al-santandrea_180ddeb5-49c4-4851-88dd-eacca525225f.html",
            "pag": "cronaca",
            "descriptionLong": "(ANSA) - ROMA, 09 GEN - Un medico aggredito, infermieri insultati, strumentazioni mediche distrutte dai familiari di un paziente deceduto. L'ennesimo atto di violenza contro i sanitari è avvenuto all'ospedale Sant'Andrea di Roma secondo quanto denuncia il sindacato dei medici Federazione Cimo-Fesmed. \"Ancora un episodio di violenza ai danni di un collega, schiaffeggiato e colpito da una borsa mentre tutto il personale infermieristico e ausiliario presente veniva pesantemente insultato -racconta il sindacato - la violenza ha causato danni anche alle strumentazioni mediche presenti nel luogo dell'aggressione, che è stata scatenata dalla comunicazione del decesso di un parente degli aggressori. Il medico aggredito è stato assistito dal personale del Pronto soccorso del Sant'Andrea e ha denunciato gli aggressori\". \"Rinnovo l'appello al Prefetto di Roma per studiare una strategia comune per affrontare un fenomeno in preoccupante aumento. Credo sia necessario riattivare i punti di polizia presso i Pronto soccorso degli ospedali\", afferma Alessio D'Amato, assessore regionale alla Sanità e candidato alla Presidenza della Regione Lazio per il centrosinistra. \"Da anni seguo in prima persona la delicata realtà degli operatori e delle strutture sanitarie sotto attacco. Una priorità nazionale e internazionale\", aveva detto Francesco Rocca, candidato del centrodestra alla Presidenza della Regione Lazio. (ANSA).",
            "key_words": "\"Salute,Morte,Candidato,Criminalità\"\"Archiviato\"\"Francesco Rocca,Alessio D'Amato,Sant'Andrea\"\"Person\"\"Federazione Cimo-Fesmed,Polizia di Stato\"\"Organization\""
        },
        {
            "id": 8,
            "title": "'Ndrangheta: clan litorale Lazio, Regione parte civile",
            "description": "Nel processo su infiltrazioni nei comuni di Anzio e Nettuno",
            "user": "Redazione ANSA",
            "place": "ROMA",
            "date": "2023-01-09T18:49:08.000+00:00",
            "datePublication": "09 gennaio 2023 14:31",
            "url": "https://www.ansa.it/lazio/notizie/2023/01/09/ndrangheta-clan-litorale-lazio-regione-parte-civile_97b9e821-2342-48b0-8b28-0ab28717b781.html",
            "pag": "cronaca",
            "descriptionLong": "(ANSA) - ROMA, 09 GEN - La Regione Lazio comparirà come parte civile nel processo legato alle infiltrazioni della criminalità organizzata di stampo 'ndranghetista nei comuni di Anzio e Nettuno, centri del litorale. Nel procedimento sono imputati sessanta persone accusate anche di associazione a delinquere di stampo mafioso. Il giudice per le udienze preliminari di Roma oggi ha dato il via libera alle costituzioni di parte civile anche per l'Associazione Antonini Caponnetto e Asso Vittime Criminalità. Il processo scaturisce dall'indagine della Dda che portò agli arresti, effettuati dei carabinieri, di circa sessanta persone. (ANSA).",
            "key_words": "\"Processo,Indagine,Criminalità Organizzata\"\"Archiviato\"\"Associazione Antonini Caponnetto,'ndrangheta,Direzione Distrettuale Antimafia\"\"Organization\""
        },
        {
            "id": 9,
            "title": "Scontri tifosi: al lavoro anche la Digos di Roma",
            "description": "Per identificare gli ultras giallorossi coinvolti nei tafferugli",
            "user": "Redazione ANSA",
            "place": "ROMA",
            "date": "2023-01-09T18:49:08.000+00:00",
            "datePublication": "09 gennaio 2023 13:46",
            "url": "https://www.ansa.it/lazio/notizie/2023/01/09/scontri-tifosi-al-lavoro-anche-la-digos-di-roma_a93f21ba-8253-4a3d-98c8-b4870d3ec47c.html",
            "pag": "cronaca",
            "descriptionLong": "(ANSA) - ROMA, 09 GEN - Sugli scontri avvenuti ieri sulla A1 sono a lavoro anche gli agenti della Digos di Roma che stanno coadiuvando i colleghi della questura di Arezzo. Anche la Digos di Roma è al lavoro per identificare gli ultras giallorossi coinvolti nei tafferugli con quelli napoletani. (ANSA).",
            "key_words": "\"Sommossa,Forze Ordine\"\"Archiviato\"\"DIGOS\"\"Organization\""
        },
        {
            "id": 10,
            "title": "Domani direttissima per ultrà Roma arrestato",
            "description": "Martino Di Tosto in passato già coinvolto in incidenti",
            "user": "Redazione ANSA",
            "place": "ROMA",
            "date": "2023-01-09T18:49:09.000+00:00",
            "datePublication": "09 gennaio 2023 13:38",
            "url": "https://www.ansa.it/lazio/notizie/2023/01/09/domani-direttissima-per-ultra-roma-arrestato_591b2fc8-260f-4fe4-ae54-94e6c8587886.html",
            "pag": "cronaca",
            "descriptionLong": "(ANSA) - ROMA, 09 GEN - E' prevista per domani l'udienza per direttissima per l'unico arrestato al momento per gli scontri di ieri tra ultrà napoletani e romanisti. Si tratta di Martino Di Tosto, supporter della Roma già in passato coinvolto in incidenti, nei cui confronti l'accusa è di rissa aggravata. Per lui, difeso dall'avvocato Lorenzo Contucci, l'udienza si svolgerà domani. (ANSA).",
            "key_words": "\"Giustizia,Accusa,Indagine\"\"Archiviato\"\"Lorenzo Contucci,Martino Di Tosto\"\"Person\"\"Roma\"\"Organization\""
        }
    ]
}
