<svg version="1.2" xmlns="http://www.w3.org/2000/svg" viewBox="0 0 700 700" width="700" height="700">
	<title>noun-cerberus-1890707-svg</title>
	<style>
		.s0 { fill: #000000 } 
		.s1 { fill: #f7fff9 } 
	</style>
	<path id="Livello 1" class="s0" d="m349.5 667c-175.6 0-317.5-141.9-317.5-317.5 0-175.6 141.9-317.5 317.5-317.5 175.6 0 317.5 141.9 317.5 317.5 0 175.6-141.9 317.5-317.5 317.5z"/>
	<path id="Forma 1" class="s1" d="m349.5 634.1c-157.4 0-284.6-127.2-284.6-284.6 0-157.4 127.2-284.6 284.6-284.6 157.4 0 284.6 127.2 284.6 284.6 0 157.4-127.2 284.6-284.6 284.6z"/>
	<g id="Layer">
		<path id="Layer" fill-rule="evenodd" class="s0" d="m617.1 366c-10.1 9.6-26.4 19.6-39.8 20.8-3.4 0-10.1 0.5-18.5-1.7-8.9-2.3-11.7-5.6-19.6-9-3.9-1.7-21.8-8.9-30.8-2.8-9.5 6.7 2.8 24.1-5 47.1-5.6 16.8-15.1 21.2-31.4 40.8-9.5 11.2-22.4 29.2-34.1 54.9-56 26.3-120.4 26.3-176.4 0-11.8-25.7-24.7-43.1-34.2-54.9-16.2-19.6-25.8-24-31.4-40.8-7.8-23 4.5-39.8-5-47.1-9-6.1-26.9 1.1-30.8 2.8-8.4 3.4-10.6 6.7-19.6 9-7.8 2.2-15.1 1.7-18.5 1.7-13.4-1.2-29.7-10.7-39.7-20.8-1.7-1.6-1.7-3.9 0-5.6 9.5-9.5 17.3-16.2 23.5-21.2 11.2-9 14.5-10.1 18.5-14 8.4-11.8 5-20.8 11.7-33.1 7.9-14.5 18.5-24.1 26.9-29.7-2.8-5-6.2-9.5-9-14.5q-3.3-4.2-6.7-10.1-3.3-5.9-6.7-11.8c4.5 0 11.2 0.6 18.5 2.3 7.3 1.7 12.9 3.9 17.3 6.1q2.6-9.2 5.1-18.4c7.3 5.5 16.8 13.4 26.3 25.2 7.8 9.5 13.4 18.4 16.8 26.3 22.4 6.1 35.8 16.2 43.7 24 4.5 5.1 8.4 10.1 18.5 20.2q2.5 2.5 5 5l-0.6 1.2c-2.8 9.5-6.7 19-10.6 28.5-1.7 4.5-4.5 9-6.7 13.5-1.1 2.2-2.3 4.4-3.4 7.3l-0.5 1.6c0 0.6-0.6 1.2-0.6 1.7-0.6 1.1-0.6 2.8-1.1 3.9-1.1 5.1-1.7 10.1-1.7 15.7 0 5.1 0.6 10.7 1.7 15.7 2.2 10.1 5.6 20.2 9.5 29.7 3.9 9.5 8.4 19 13.4 28 4.5 8.9 10.1 17.9 16.3 26.3 11.7 16.8 26.3 31.9 42.5 44.8 8.4-6.7 16.8-14.6 24.1-22.4 3.4-3.9 7.3-7.8 10.7-12.3q5-6.7 10-13.5c3.4-4.4 6.2-8.9 9-14 2.8-5 5-9.5 7.8-14.5 5.1-9.5 10.1-19.6 14-30.3 4-10 7.3-21.2 7.9-32.4 0.5-5.6 0.5-11.2-0.6-16.8-0.5-1.7-0.5-3.4-1.1-4.5l-1.1-4.5c-0.6-2.8-2.3-5.6-3.4-7.8-2.2-5.1-5-9.6-7.3-14.6-2.2-5-4.4-10.1-6.1-15.1-2.3-5.1-3.9-10.7-5.6-15.7-0.6-0.6-0.6-0.6-0.6-1.1q2.5-2.5 5.1-5.1c9.5-10 13.4-15.1 18.4-20.1 7.9-7.9 20.8-17.9 43.7-24.1 3.9-7.3 9-16.8 16.8-26.3 9-11.8 18.5-19.6 26.3-25.2q2.6 9.2 5.1 18.5c4.5-1.7 10.1-4.5 17.3-6.2 7.3-2.2 13.5-2.2 18.5-2.2q-2.5 5.8-6.7 11.7-3.4 5.1-6.7 10.1c-2.8 5-6.2 9.5-9 14.6 7.9 6.1 19.1 15.1 26.9 29.6 6.7 12.4 3.4 21.3 11.8 33.1 4.4 5.6 7.8 6.7 19 16.2 5.6 4.5 14 11.8 23.5 21.3 1.7 1.7 1.7 3.9-0.5 5zm-452-66c-0.5-1.7-9.5-3.4-12.8 0.5-1.7 1.1-1.7 3.9-2.8 8.4-0.6 2.8 0 3.4 0 3.4 0.5 0.5 2.8-2.3 7.8-6.2 5-4.5 7.3-5 7.8-6.1zm43.7-30.8l-0.5-3.4c-0.6-5.6-2.3-11.8-5.1-16.8-1.1-2.2-2.8-5-4.5-7.3-1.6-2.2-3.3-4.5-5.6-6.7 1.2 2.8 2.3 5 3.4 7.8 1.1 2.8 1.7 5.1 2.8 7.9 1.1 3.9 2.8 8.4 3.9 12.9h-5c-1.1 0-2.8 0-3.9 0.5-1.2 0-2.8 0.6-4 1.1 1.2 0.6 2.8 0.6 4 0.6 1.1 0 2.8 0.6 3.9 0.6 2.8 0.5 5.6 1.1 7.8 1.6zm300.2-4.4c-1.1-0.6-2.8-0.6-3.9-1.2-1.2 0-2.3-0.5-4-0.5h-5c1.1-4.5 2.2-8.4 3.9-12.9 0.6-2.8 1.7-5 2.8-7.8 1.1-2.3 2.3-5.1 3.4-7.9-2.3 2.3-3.9 4.5-5.6 6.7-1.7 2.3-3.4 4.5-4.5 7.3q-3.4 8.4-5 16.8l-0.6 3.4 3.4-0.6c2.8-0.5 5-1.1 7.8-1.7 1.1 0 2.8-0.5 3.9-0.5 1.7 0 2.8 0 3.4-1.1zm42.5 44.2c-1.1-4.5-1.6-7.3-2.8-8.4-3.9-3.9-12.3-2.8-12.8-0.6-0.6 1.2 2.2 1.7 7.2 6.2 4.5 3.9 6.8 6.7 7.9 6.2 0 0 0.5-0.6 0.5-3.4z"/>
		<path id="Layer" class="s0" d="m348.2 534q-11.7-10-21.8-21.8c-3.9-3.9-6.7-7.8-10.1-11.8-2.8-3.9-6.1-7.8-8.9-12.3q-8.4-13.4-15.2-26.9c-4.4-8.9-8.9-18.4-12.8-28-3.4-9.5-6.8-19-8.4-29.1-1.7-10.1-2.3-20.1 0.5-29.7 0.6-1.1 0.6-2.2 1.1-3.3 0-0.6 0.6-1.1 0.6-1.7l0.6-1.7c0.5-2.2 2.2-4.5 3.3-6.7 2.8-4.5 5.1-9.5 7.3-14 3.9-7.8 7.3-16.2 10.1-24.6l1.7-4.5c0-0.6 0.5-1.1 0.5-1.7l0.6-2.2 1.1-4c0.6 0 0.6-0.5 0.6-1.1 0.5 1.1 1.6 2.8 2.2 4.5 1.7 3.4 3.4 7.3 4.5 11.2 1.1 3.9 2.2 7.8 3.9 11.8l3.9 11.7c1.7 3.9 2.8 7.9 3.9 11.8 0.6 2.2 1.2 3.9 2.3 6.1 1.1 2.3 2.2 4.5 3.9 6.2 3.4 3.9 7.3 6.2 11.8 7.8 4.4 1.7 8.9 2.3 13.4 2.3 4.5 0 9-0.6 13.4-2.3 4.5-1.6 8.5-4.4 11.8-7.8 1.7-1.7 2.8-3.9 3.9-6.2 1.1-2.2 1.7-3.9 2.3-6.1 1.7-3.9 2.8-7.9 3.9-11.8l3.9-11.7c1.7-4 2.8-7.9 3.9-11.8 1.2-3.9 2.8-7.3 4.5-11.2 0.6-1.1 1.1-2.8 2.3-4.5 1.1 3.4 1.6 6.7 2.8 9.5 1.6 5.1 3.3 10.7 5.6 15.7q3.3 7.6 6.7 15.1c2.2 5.1 5 9.6 7.8 14.6 1.1 2.2 2.3 5 3.4 7.3l1.1 3.3c0.6 1.2 0.6 2.8 1.1 4 1.1 5 1.1 10 1.1 15.6-0.5 11.2-3.3 21.9-6.7 32-3.3 10.6-7.8 20.1-12.9 30.2-2.2 5-4.4 9.5-7.2 14.6-2.8 4.4-5.6 9.5-8.4 14-11.8 18.4-26.4 34.7-44.9 49.2z"/>
		<path id="Layer" fill-rule="evenodd" class="s0" d="m290.6 280.4c-7.9-24.1-2.8-45.4 3.3-71.2 4.5-19.6 11.2-34.1 15.7-44.2 1.1 9 6.2 40.3 31.4 54.9 2.8 1.7 6.1 3.3 10.1 4.5 3.9-1.2 7.2-2.8 10-4.5 25.2-14.6 30.3-45.9 31.4-54.9 5 10.1 11.2 25.2 15.7 44.2 6.1 25.8 11.2 47.6 3.3 71.2-2.2 7.2-5 12.3-7.8 16.8-0.6 1.1-1.7 2.2-2.3 3.3 0 0.6-0.5 0.6-0.5 1.1-0.6 0.6-1.1 1.2-1.7 2.3-3.3 5.6-6.7 12.3-10.1 22.9-2.8 9-6.1 17.4-8.9 26.4-2.8 9.5-4 13.4-7.3 17.3-6.7 7.3-16.2 8.4-22.4 8.4-6.2 0-16.2-1.1-22.4-8.4-3.4-4.5-4.5-8.4-7.3-17.3-2.8-9-6.1-17.4-8.9-26.4-3.4-10.6-6.8-17.3-10.1-22.9-0.6-0.6-1.1-1.7-1.7-2.3 0-0.5-0.6-0.5-0.6-1.1-0.5-1.1-1.6-2.2-2.2-3.3-2.8-4.5-5.6-9.6-6.7-16.8zm84-43.2c3.9-2.8 7.3-5.6 10.1-9.5 2.2-3.9 4.4-7.8 6.1-12.3 1.1-4.5 2.3-9 2.3-13.4 0-4.5-0.6-9-2.3-13.5-0.5 4.5-1.1 8.4-1.7 12.9-1.1 3.9-2.2 8.4-3.3 12.3q-1.7 5.9-5.1 11.8c-1.6 3.3-3.9 7.3-6.1 11.7zm-4.5 54.9l3.9-2.2c2.8-1.7 4.5-4.5 5.1-7.9l1.6-12.3c0-3.3-4.4-5-6.1-1.7l-9.5 19.6c-1.2 2.8 2.2 5.6 5 4.5zm-44.8-24.1c-1.7-3.3-6.7-1.6-6.2 1.7l1.7 12.3c0.6 3.4 2.3 6.2 5.1 7.9l3.9 2.2c3.3 1.7 6.7-1.7 5-4.5zm-17.9-67.2c0 4.5 0.6 9 2.2 13.5 1.2 4.5 3.4 8.4 6.2 12.3 2.8 3.9 6.2 7.3 10.1 9.5-2.3-3.9-4.5-7.3-6.7-11.2q-3.4-5.9-5.1-11.7c-1.7-4-2.8-7.9-3.3-12.4-0.6-3.9-1.2-8.4-1.7-12.8-1.7 4.4-2.3 8.9-1.7 12.8z"/>
	</g>
</svg>